Senior Thesis
…
---
# Treatment variable

```r
od <- od %>%
     mutate(Treated = State == 'California' & 
            Quarter %in% c('Q32011','Q42011','Q12012'))
od
```

```
## # A tibble: 162 × 5
##    State   Quarter  Rate Quarter_Num Treated
##    <chr>   <chr>   <dbl>       <int> <lgl>  
##  1 Alaska  Q42010  0.75            1 FALSE  
##  2 Alaska  Q12011  0.77            2 FALSE  
##  3 Alaska  Q22011  0.77            3 FALSE  
##  4 Alaska  Q32011  0.78            4 FALSE  
##  5 Alaska  Q42011  0.78            5 FALSE  
##  6 Alaska  Q12012  0.79            6 FALSE  
##  7 Arizona Q42010  0.263           1 FALSE  
##  8 Arizona Q12011  0.209           2 FALSE  
##  9 Arizona Q22011  0.226           3 FALSE  
## 10 Arizona Q32011  0.250           4 FALSE  
## # ℹ 152 more rows
```
…
